/Users/deniszayarskiy/Desktop/AutoProj/Zayarskiy/src/main/java/libs/SpreadsheetData.java
/Users/deniszayarskiy/Desktop/AutoProj/Zayarskiy/src/main/java/pages/ParentPage.java
/Users/deniszayarskiy/Desktop/AutoProj/Zayarskiy/src/main/java/QALight/Selenium36/App.java
/Users/deniszayarskiy/Desktop/AutoProj/Zayarskiy/src/main/java/libs/Utils.java
/Users/deniszayarskiy/Desktop/AutoProj/Zayarskiy/src/main/java/libs/ConfigData.java
/Users/deniszayarskiy/Desktop/AutoProj/Zayarskiy/src/main/java/pages/HomePage.java
/Users/deniszayarskiy/Desktop/AutoProj/Zayarskiy/src/main/java/libs/DataBase.java
/Users/deniszayarskiy/Desktop/AutoProj/Zayarskiy/src/main/java/libs/ActionsWithWebElements.java
/Users/deniszayarskiy/Desktop/AutoProj/Zayarskiy/src/main/java/libs/ExcelDriver.java
/Users/deniszayarskiy/Desktop/AutoProj/Zayarskiy/src/main/java/pages/LoginPage.java
